%YAML 1.1
%TAG !u! tag:unity3d.com,2011:
--- !u!1001 &100100000
Prefab:
  m_ObjectHideFlags: 1
  serializedVersion: 2
  m_Modification:
    m_TransformParent: {fileID: 0}
    m_Modifications: []
    m_RemovedComponents: []
  m_ParentPrefab: {fileID: 0}
  m_RootGameObject: {fileID: 1906378943528958}
  m_IsPrefabParent: 1
--- !u!1 &1906378943528958
GameObject:
  m_ObjectHideFlags: 0
  m_PrefabParentObject: {fileID: 0}
  m_PrefabInternal: {fileID: 100100000}
  serializedVersion: 5
  m_Component:
  - component: {fileID: 4732940713343918}
  - component: {fileID: 114233981272917244}
  - component: {fileID: 114203844103519724}
  m_Layer: 9
  m_Name: MMD Ribbon
  m_TagString: Untagged
  m_Icon: {fileID: 0}
  m_NavMeshLayer: 0
  m_StaticEditorFlags: 0
  m_IsActive: 0
--- !u!4 &4732940713343918
Transform:
  m_ObjectHideFlags: 1
  m_PrefabParentObject: {fileID: 0}
  m_PrefabInternal: {fileID: 100100000}
  m_GameObject: {fileID: 1906378943528958}
  m_LocalRotation: {x: -0, y: -0, z: -0, w: 1}
  m_LocalPosition: {x: 0, y: 0, z: 0}
  m_LocalScale: {x: 1, y: 1, z: 1}
  m_Children: []
  m_Father: {fileID: 0}
  m_RootOrder: 0
  m_LocalEulerAnglesHint: {x: 0, y: 0, z: 0}
--- !u!114 &114203844103519724
MonoBehaviour:
  m_ObjectHideFlags: 1
  m_PrefabParentObject: {fileID: 0}
  m_PrefabInternal: {fileID: 100100000}
  m_GameObject: {fileID: 1906378943528958}
  m_Enabled: 1
  m_EditorHideFlags: 0
  m_Script: {fileID: 11500000, guid: 52b30871d4a90ba40af8378ce0e0ac08, type: 3}
  m_Name: 
  m_EditorClassIdentifier: 
  FrameSource:
    link: {fileID: 0}
  SelectionSource:
    link: {fileID: 0}
  StyleSource:
    link: {fileID: 0}
  IgnoreSources: 0
--- !u!114 &114233981272917244
MonoBehaviour:
  m_ObjectHideFlags: 1
  m_PrefabParentObject: {fileID: 0}
  m_PrefabInternal: {fileID: 100100000}
  m_GameObject: {fileID: 1906378943528958}
  m_Enabled: 1
  m_EditorHideFlags: 0
  m_Script: {fileID: 11500000, guid: d7d8bcdfafd08a245bb4853c616e55be, type: 3}
  m_Name: 
  m_EditorClassIdentifier: 
  AutoRefresh: 1
  ribbonMaterial: {fileID: 2100000, guid: 399c0d2837b71884db661e377cc9fe60, type: 2}
  LazyUpdates: 0
  Settings:
    IntParameters:
    - Name: IntermediatePoints
      _value: 0
    FloatParameters:
    - Name: Width
      _value: 0.04
    - Name: SplineAlpha
      _value: 0.5
    BoolParameters:
    - Name: HelenSmoothing
      _value: 0
    - Name: Untwist
      _value: 0
    - Name: HelenSpline
      _value: 0
    ColorParameters: []
    Width:
      Name: Width
      _value: 0.04
    IntermediatePoints:
      Name: IntermediatePoints
      _value: 0
    SplineAlpha:
      Name: SplineAlpha
      _value: 0.5
    Untwist:
      Name: Untwist
      _value: 0
    HelenSpline:
      Name: HelenSpline
      _value: 0
    HelenSmoothing:
      Name: HelenSmoothing
      _value: 0
